Checking Consistency of Animal Pedigrees • qpdt
…
#> Warning: `guess_max` is a very large value, setting to `21474836` to avoid
#> exhausting memory
#> [[1]]
#> [[1]]$PedFile
#> [1] "/private/var/folders/2v/jfsqj8zj2f122jcgy15nzfn00000gn/T/Rtmpn1cOGU/temp_libpath1769b2a27177a/qpdt/extdata/PopReport_GG_mit_20210113.csv_adaptfin2.csv"
#> 
#> [[1]]$NrRecord
#> [1] 172076
#> 
#> [[1]]$NrAnimals
#> [1] 172063
#> 
#> [[1]]$TblDuplicates
#> # A tibble: 32 x 9
#>    `#IDTier`   IDVater IDMutter Birthdate  Geschlecht   PLZ introg inb_gen  cryo
#>        <dbl>     <dbl>    <dbl> <date>     <chr>      <dbl>  <dbl> <lgl>   <dbl>
#>  1     99954 999532045   9.99e8 1996-01-26 F           3550      0 NA          0
#>  2     99954 999555626   1.00e9 1998-03-08 F           3274      0 NA          0
#>  3     99950 999434122   1.00e9 1981-04-04 F           3052      0 NA          0
#>  4     99950 999558998   1.00e9 2002-03-12 F           3537      0 NA          0
#>  5     99956 999555626   1.00e9 1998-03-08 F           3274      0 NA          0
#>  6     99956 999466991   1.00e9 2003-02-02 F           3152      0 NA          0
#>  7     99956 999560618   1.00e9 2004-02-14 F           3619      0 NA          0
#>  8     99957 999467818   1.00e9 2000-04-10 F           3537      0 NA          0
#>  9     99957 999466991   1.00e9 2003-02-04 M           3152      0 NA          0
#> 10     99958 999555626   1.00e9 1998-03-05 F           3252      0 NA          0
#> # … with 22 more rows
…
